# setting LC_ALL to "C"
# --> Including file '/home/marco/Devel/LHCb/workspace/Gaudi/GaudiExamples/options/ColorMsg.opts'
# --> Including file '/home/marco/Devel/LHCb/workspace/Gaudi/GaudiExamples/options/Common.opts'
# --> Including file '/home/marco/Devel/LHCb/workspace/Gaudi/GaudiExamples/options/Services.opts'
# AuditorSvc.Auditors = { "ChronoAuditor" };
# <-- End of file '/home/marco/Devel/LHCb/workspace/Gaudi/GaudiExamples/options/Services.opts'
# ApplicationMgr.StatusCodeCheck = true;
# <-- End of file '/home/marco/Devel/LHCb/workspace/Gaudi/GaudiExamples/options/Common.opts'
# ApplicationMgr.TopAlg = { "ColorMsgAlg"};
# MessageSvc.OutputLevel      = 1;
# MessageSvc.useColors        = true;
# MessageSvc.fatalColorCode   = { "blue", "red" };
# MessageSvc.errorColorCode   = { "[97;101;1m" };
# MessageSvc.warningColorCode = { "yellow" };
# MessageSvc.infoColorCode    = { "[96;1m" };
# MessageSvc.debugColorCode   = { "[92;1m" };
# MessageSvc.verboseColorCode = { "[95;4m" };
# ApplicationMgr.EvtMax = 2;
# ApplicationMgr.EvtSel = "NONE";
# <-- End of file '/home/marco/Devel/LHCb/workspace/Gaudi/GaudiExamples/options/ColorMsg.opts'
ApplicationMgr    SUCCESS
====================================================================================================================================
                                                   Welcome to ApplicationMgr (GaudiCoreSvc v28r1)
                                          running on pcphlbc16 on Tue Mar  7 13:08:55 2017
====================================================================================================================================
ApplicationMgr       INFO Application Manager Configured successfully
[92;1mServiceManager      DEBUG Initializing service StatusCodeSvc[m
[92;1mStatusCodeSvc       DEBUG Service base class initialized successfully[m
[96;1mStatusCodeSvc        INFO initialize[m
[92;1mServiceManager      DEBUG Initializing service AppMgrRunable[m
[92;1mAppMgrRunable       DEBUG Service base class initialized successfully[m
[92;1mServiceManager      DEBUG Initializing service EventLoopMgr[m
[92;1mEventLoopMgr        DEBUG Service base class initialized successfully[m
[92;1mIncidentSvc         DEBUG Service base class initialized successfully[m
[92;1mIncidentSvc         DEBUG Adding [AbortEvent] listener '<unknown>' with priority 0[m
[92;1mEventDataSvc        DEBUG Service base class initialized successfully[m
[95;4mEventDataSvc      VERBOSE ServiceLocatorHelper::service: found service IncidentSvc[m
[92;1mEventPersistenc...  DEBUG Service base class initialized successfully[m
[95;4mEventLoopMgr      VERBOSE ServiceLocatorHelper::service: found service EventDataSvc[m
[92;1mEventLoopMgr        DEBUG Creating Top Algorithm ColorMsgAlg with name ColorMsgAlg[m
[95;4mColorMsgAlg       VERBOSE ServiceLocatorHelper::service: found service EventDataSvc[m
[92;1mTimelineSvc         DEBUG Service base class initialized successfully[m
[92;1mTimelineSvc         DEBUG initialize[m
[95;4mColorMsgAlg       VERBOSE ServiceLocatorHelper::service: found service TimelineSvc[m
[92;1mAlgExecStateSvc     DEBUG Service base class initialized successfully[m
[95;4mColorMsgAlg       VERBOSE ServiceLocatorHelper::service: found service AlgExecStateSvc[m
[92;1mAlgExecStateSvc     DEBUG preInit: will add Alg ColorMsgAlg later[m
[92;1mColorMsgAlg         DEBUG input handles: 0[m
[92;1mColorMsgAlg         DEBUG output handles: 0[m
[92;1mColorMsgAlg         DEBUG Data Deps for ColorMsgAlg[m
[93;1mEventLoopMgr      WARNING Unable to locate service "EventSelector" [m
[93;1mEventLoopMgr      WARNING No events will be processed from external input.[m
[92;1mHistogramDataSvc    DEBUG Service base class initialized successfully[m
[95;4mHistogramDataSvc  VERBOSE ServiceLocatorHelper::service: found service IncidentSvc[m
[92;1mHistogramPersis...  DEBUG Service base class initialized successfully[m
[93;1mHistogramPersis...WARNING Histograms saving not required.[m
[95;4mHistogramDataSvc  VERBOSE ServiceLocatorHelper::service: found service HistogramPersistencySvc[m
[96;1mApplicationMgr       INFO Application Manager Initialized successfully[m
[92;1mServiceManager      DEBUG Starting service StatusCodeSvc[m
[92;1mServiceManager      DEBUG Starting service AppMgrRunable[m
[92;1mServiceManager      DEBUG Starting service IncidentSvc[m
[92;1mServiceManager      DEBUG Starting service EventPersistencySvc[m
[92;1mServiceManager      DEBUG Starting service EventDataSvc[m
[92;1mServiceManager      DEBUG Starting service TimelineSvc[m
[92;1mServiceManager      DEBUG Starting service AlgExecStateSvc[m
[92;1mServiceManager      DEBUG Starting service HistogramPersistencySvc[m
[92;1mServiceManager      DEBUG Starting service HistogramDataSvc[m
[92;1mServiceManager      DEBUG Starting service EventLoopMgr[m
[96;1mApplicationMgr       INFO Application Manager Started successfully[m
[95;4mAlgExecStateSvc   VERBOSE reset(0)[m
[92;1mAlgExecStateSvc     DEBUG resizing state containers to : 1[m
[92;1mAlgExecStateSvc     DEBUG adding alg ColorMsgAlg to 1 slots[m
[95;4mAlgExecStateSvc   VERBOSE dumping state:
  [slot: 0, incident: Invalid]:
  
  + ColorMsgAlg  e: n
[m
[94;101;1mColorMsgAlg         FATAL THIS IS A FATAL MESSAGE[m
[97;101;1mColorMsgAlg         ERROR THIS IS AN ERROR MESSAGE[m
[93;1mColorMsgAlg       WARNING THIS IS A WARNING MESSAGE[m
[96;1mColorMsgAlg          INFO THIS IS A INFO MESSAGE[m
[92;1mColorMsgAlg         DEBUG THIS IS A DEBUG MESSAGE[m
[95;4mColorMsgAlg       VERBOSE THIS IS A VERBOSE MESSAGE[m
[97;101;1mColorMsgAlg         ERROR this is another[92;1m error [m[97;101;1mmessage[m
[93;1mColorMsgAlg       WARNING This is another[95;1m warning [m[93;1mmessage[m
[96;1mColorMsgAlg          INFO testing colour[m
[96;1mColorMsgAlg          INFO setting....[93;1mthis should be in yellow[91;1m and red[m
[96;1mColorMsgAlg          INFO multicolor: [94;102;1mthis is blue on green[95;107;1m and purple on white[m
[96;1mColorMsgAlg          INFO [92;1mThis is green. [93;104;1mThis is in yellow on blue. [m[96;1mThis is back to normal[m
[95;4mAlgExecStateSvc   VERBOSE reset(0)[m
[94;101;1mColorMsgAlg         FATAL THIS IS A FATAL MESSAGE[m
[97;101;1mColorMsgAlg         ERROR THIS IS AN ERROR MESSAGE[m
[93;1mColorMsgAlg       WARNING THIS IS A WARNING MESSAGE[m
[96;1mColorMsgAlg          INFO THIS IS A INFO MESSAGE[m
[92;1mColorMsgAlg         DEBUG THIS IS A DEBUG MESSAGE[m
[95;4mColorMsgAlg       VERBOSE THIS IS A VERBOSE MESSAGE[m
[97;101;1mColorMsgAlg         ERROR this is another[92;1m error [m[97;101;1mmessage[m
[93;1mColorMsgAlg       WARNING This is another[95;1m warning [m[93;1mmessage[m
[96;1mColorMsgAlg          INFO testing colour[m
[96;1mColorMsgAlg          INFO setting....[93;1mthis should be in yellow[91;1m and red[m
[96;1mColorMsgAlg          INFO multicolor: [94;102;1mthis is blue on green[95;107;1m and purple on white[m
[96;1mColorMsgAlg          INFO [92;1mThis is green. [93;104;1mThis is in yellow on blue. [m[96;1mThis is back to normal[m
[92;1mEventLoopMgr        DEBUG ---> Loop Finished -  WSS 53.9258 | total time (skipping 1st evt) 41617 ns[m
[92;1mServiceManager      DEBUG Stopping service EventLoopMgr[m
[92;1mServiceManager      DEBUG Stopping service HistogramDataSvc[m
[92;1mServiceManager      DEBUG Stopping service HistogramPersistencySvc[m
[92;1mServiceManager      DEBUG Stopping service AlgExecStateSvc[m
[92;1mServiceManager      DEBUG Stopping service TimelineSvc[m
[92;1mServiceManager      DEBUG Stopping service EventDataSvc[m
[92;1mServiceManager      DEBUG Stopping service EventPersistencySvc[m
[92;1mServiceManager      DEBUG Stopping service IncidentSvc[m
[92;1mServiceManager      DEBUG Stopping service AppMgrRunable[m
[92;1mServiceManager      DEBUG Stopping service StatusCodeSvc[m
[96;1mApplicationMgr       INFO Application Manager Stopped successfully[m
[92;1mServiceManager      DEBUG Finalizing service EventLoopMgr[m
[92;1mIncidentSvc         DEBUG Removing [AbortEvent] listener '<unknown>'[m
[96;1mEventLoopMgr         INFO Histograms converted successfully according to request.[m
[92;1mServiceManager      DEBUG Finalizing service HistogramDataSvc[m
[92;1mServiceManager      DEBUG Finalizing service HistogramPersistencySvc[m
[92;1mServiceManager      DEBUG Finalizing service AlgExecStateSvc[m
[92;1mServiceManager      DEBUG Finalizing service TimelineSvc[m
[92;1mServiceManager      DEBUG Finalizing service EventDataSvc[m
[92;1mServiceManager      DEBUG Finalizing service EventPersistencySvc[m
[92;1mServiceManager      DEBUG Finalizing service IncidentSvc[m
[92;1mIncidentSvc         DEBUG Incident  timing: Mean(+-rms)/Min/Max:0(+-0)/0/0[ms] Total:0[s][m
[92;1mServiceManager      DEBUG Finalizing service AppMgrRunable[m
[92;1mServiceManager      DEBUG Finalizing service StatusCodeSvc[m
[92;1mStatusCodeSvc       DEBUG all StatusCode instances where checked[m
[92;1mServiceManager      DEBUG Looping over all active services...[m
[92;1mServiceManager      DEBUG ---- StatusCodeSvc (refCount = 2)[m
[92;1mServiceManager      DEBUG ---- MessageSvc (refCount = 18)[m
[92;1mServiceManager      DEBUG ---- JobOptionsSvc (refCount = 3)[m
[92;1mServiceManager      DEBUG ---- AppMgrRunable (refCount = 3)[m
[92;1mServiceManager      DEBUG ---- IncidentSvc (refCount = 2)[m
[92;1mServiceManager      DEBUG ---- EventPersistencySvc (refCount = 2)[m
[92;1mServiceManager      DEBUG ---- EventDataSvc (refCount = 3)[m
[92;1mServiceManager      DEBUG ---- TimelineSvc (refCount = 2)[m
[92;1mServiceManager      DEBUG ---- AlgExecStateSvc (refCount = 3)[m
[92;1mServiceManager      DEBUG ---- HistogramPersistencySvc (refCount = 2)[m
[92;1mServiceManager      DEBUG ---- HistogramDataSvc (refCount = 3)[m
[92;1mServiceManager      DEBUG ---- EventLoopMgr (refCount = 3)[m
[96;1mApplicationMgr       INFO Application Manager Finalized successfully[m
[96;1mApplicationMgr       INFO Application Manager Terminated successfully[m
